Mini Project 1 – Mitch Thronson
…
Next, we see the most common words by month recorded for both Barack and Michelle (since the majority of tweets during this time period come from Michelle, the combined dataset isn’t used here). The words most commonly used by Barack emit a sense of political activism, initiative and inspiration–including great, change, health, people, history, etc.. On the other hand, almost of all of Michelle’s most commonly used words by month were “lady” (possibly in self-reference to her title as first lady)–not at exciting at all.

Most common word pairs

# A tibble: 971 × 3
   word1      word2         n
   <chr>      <chr>     <int>
 1 climate    change       11
 2 white      house        10
 3 health     care          7
 4 gun        violence      6
 5 affordable health        5
 6 million    americans     5
 7 supreme    court         5
 8 health     coverage      4
 9 paris      agreement     4
10 2          yrs           3
# ℹ 961 more rows

# A tibble: 10,049 × 3
   word1      word2         n
   <chr>      <chr>     <int>
 1 michelle   obama        83
 2 kitchen    garden       78
 3 military   families     66
 4 girls      education    64
 5 white      house        63
 6 whitehouse kitchen      63
 7 president  obama        60
 8 watch      live         50
 9 lady       michelle     44
10 flotus     amp          43
# ℹ 10,039 more rows
…
